[
  {
    "headline": "See our expertise in action",
    "vimeo": {
      "id":"463214414",
      "src":"https://player.vimeo.com/video/463214414?color=fa420f&amp;title=0&amp;byline=0&amp;portrait=0",
      "poster":"{{asset.url}}/img/SC-Hztl-video-poster.jpg",
      "alt":"Horizontal + Sitecore"
    }
  }
]
