[
  {
    "bg": {
      "src":"{{asset.url}}/img/Chicago_BG.jpg",
      "alt":"Chicago Skyline"
    },
    "headline": "Explore the Windy City on us",
    "subhead": "Sure, we're a little bummed that we couldn't see youthis year in Chicago",
    "text": "But we think you deserve a little extra. Enter our drawing for a round-trip vacation to our (relatively close) sister city and party on our dime.",
    "link": { "url":"http://e.horizontal.com/symposium2020giveaway", "text":"Enter giveaway"}
  }
]
