<svg width="220px" height="70px" viewBox="0 0 220 70" xmlns="http://www.w3.org/2000/svg">
    <title>Box Top Pink</title>
    <g stroke="none" stroke-width="1" fill="none" fill-rule="evenodd">
        <g transform="translate(-970.000000, -317.000000)">
            <g transform="translate(970.000000, 325.000000)">
                <rect fill="#F8AA97" x="17" y="48" width="191" height="14"></rect>
                <g transform="translate(55.000000, 0.000000)" stroke="#F8AA97" stroke-linecap="round" stroke-linejoin="round" stroke-width="16">
                    <path d="M27.3248,0 C12.2338,0 -0.0002,12.234 -0.0002,27.325 C-0.0002,42.27 11.9998,54.404 26.8878,54.639 L26.8678,54.659 L54.6588,54.659 L54.6588,26.784 L54.6368,26.807 C54.3588,11.956 42.2418,0 27.3248,0 Z"></path>
                    <path d="M82.3351,0 C97.4261,0 109.6601,12.234 109.6601,27.325 C109.6601,42.27 97.6601,54.404 82.7711,54.639 L82.7921,54.659 L55.0011,54.659 L55.0011,26.784 L55.0231,26.807 C55.3001,11.956 67.4181,0 82.3351,0 Z"></path>
                </g>
            </g>
        </g>
    </g>
</svg>
