<?xml version="1.0" encoding="utf-8"?>
<!-- Generator: Adobe Illustrator 25.0.0, SVG Export Plug-In . SVG Version: 6.00 Build 0)  -->
<svg version="1.1" id="Layer_1" xmlns="http://www.w3.org/2000/svg" xmlns:xlink="http://www.w3.org/1999/xlink" x="0px" y="0px"
	 viewBox="0 0 460 460" style="enable-background:new 0 0 460 460;" xml:space="preserve">
<style type="text/css">
	.st0{clip-path:url(#SVGID_5_);}
	.st1{clip-path:url(#SVGID_6_);fill:#FFFFFF;}
</style>
<g>
	<g>
		<defs>
			<polygon id="SVGID_1_" points="157.5,169.5 158.5,169.5 157.5,170.5 			"/>
		</defs>
		<clipPath id="SVGID_2_">
			<use xlink:href="#SVGID_1_"  style="overflow:visible;"/>
		</clipPath>
	</g>
	<g>
		<defs>
			<polygon id="SVGID_3_" points="157.5,169.5 158.5,169.5 157.5,170.5 			"/>
		</defs>
		<defs>
			<polygon id="SVGID_4_" points="155.5,167.5 154.5,167.5 155.5,166.5 			"/>
		</defs>
		<clipPath id="SVGID_5_">
			<use xlink:href="#SVGID_3_"  style="overflow:visible;"/>
		</clipPath>
		<clipPath id="SVGID_6_" class="st0">
			<use xlink:href="#SVGID_4_"  style="overflow:visible;"/>
		</clipPath>
		<rect x="156.5" y="168.5" class="st1" width="147" height="123"/>
	</g>
</g>
<path d="M229.8,189.9c0.6-0.7,1.3-1.6,2-2.5c1.5-1.8,3-3.7,4.7-5.4c6.8-6.8,14.8-11.3,24.3-12.5c3.7-0.4,7.5-0.3,11.4,0.3
	c6.3,1,11.9,3.3,16.8,7.2c6.7,5.2,11.2,12,12.8,20.6c1.7,9.4,0.2,18.3-3.8,26.9c-2.8,6-6.3,11.6-10.8,16.4
	c-5.6,6.1-11.1,12.3-17.1,18c-5,4.8-10.6,9.1-15.9,13.6c-6.8,5.9-14.2,11-21.4,16.3c-1,0.7-2,1.4-3.3,2.3c-5.5-4-11.1-7.9-16.5-12
	c-5.6-4.3-11.1-8.9-16.5-13.4c-2.6-2.2-5-4.6-7.5-6.9c-2.2-2.1-4.6-4-6.7-6.2c-6.6-6.5-12.9-13.5-17.8-21.6
	c-4.2-6.8-6.9-14.2-7.7-22.3c-0.7-6.7,0.4-12.9,3-18.9c3.6-8.5,10.3-14,18.7-17.6c5.9-2.6,12.1-3.4,18.3-2.7
	c9,0.9,17.1,4.3,23.6,10.9C223.5,183.4,226.5,186.5,229.8,189.9"/>
<circle cx="230" cy="230.3" r="230"/>
</svg>
