<svg width="52px" height="55px" viewBox="0 0 52 55" version="1.1" xmlns="http://www.w3.org/2000/svg" xmlns:xlink="http://www.w3.org/1999/xlink">
    <title>Snowflake</title>
    <g id="Snowflake" fill="#7fc3ba">
        <polygon id="Fill-237" points="22 55 31 55 31 0 22 0"></polygon>
        <polygon id="Fill-238" points="0 17.7532913 4.505002 10 52 37.2467087 47.494998 45"></polygon>
        <polygon id="Fill-239" points="4.505002 45 0 37.2467087 47.494998 10 52 17.7532913"></polygon>
    </g>
</svg>
